{
  "name": "repositories",
  "do": "<ul><li>To indicate product repositories.</li></ul>",
  "dont": "",
  "tags": ["products", "architecture", "url", "rpm"],
  "category": "communication",
  "type": "static"
}
