{
  "name": "state",
  "do": "<ul><li>To represent states. Normally booleans true/false, on/off.</li></ul>",
  "dont": "",
  "tags": ["state","boolean", "true", "false"],
  "category": "communication",
  "type": "static"
}
